{"count":423941,"next":"https://de.openlegaldata.io/api/cases/?format=json&page=2&page_size=10&search=Recht+auf+Vergessen+I+II+BVerfG","previous":null,"results":[{"id":521147,"slug":"ovgnrw-2026-05-15-4-b-4626","court":{"id":823,"name":"Oberverwaltungsgericht Nordrhein-Westfalen","slug":"ovgnrw","city":null,"state":12,"jurisdiction":"Verwaltungsgerichtsbarkeit","level_of_appeal":null},"file_number":"4 B 46/26","date":"2026-05-15","created_date":"2026-05-19T03:45:04Z","updated_date":"2026-05-19T10:31:07Z","type":"Beschluss","ecli":"ECLI:DE:OVGNRW:2026:0515.4B46.26.00"},{"id":521079,"slug":"eugh-2026-05-13-c-39926","court":{"id":2,"name":"Europäischer Gerichtshof","slug":"eugh","city":null,"state":19,"jurisdiction":null,"level_of_appeal":null},"file_number":"C-399/26","date":"2026-05-13","created_date":"2026-05-15T04:15:14Z","updated_date":"2026-05-15T08:14:29Z","type":"Urteil","ecli":"ECLI:EU:C:2026:399"},{"id":521080,"slug":"eugh-2026-05-13-c-40226","court":{"id":2,"name":"Europäischer Gerichtshof","slug":"eugh","city":null,"state":19,"jurisdiction":null,"level_of_appeal":null},"file_number":"C-402/26","date":"2026-05-13","created_date":"2026-05-15T04:15:14Z","updated_date":"2026-05-15T07:03:36Z","type":"Urteil","ecli":"ECLI:EU:C:2026:402"},{"id":521081,"slug":"eugh-2026-05-13-c-40126","court":{"id":2,"name":"Europäischer Gerichtshof","slug":"eugh","city":null,"state":19,"jurisdiction":null,"level_of_appeal":null},"file_number":"C-401/26","date":"2026-05-13","created_date":"2026-05-15T04:15:15Z","updated_date":"2026-05-15T07:03:36Z","type":"Urteil","ecli":"ECLI:EU:C:2026:401"},{"id":521082,"slug":"eugh-2026-05-13-c-40526","court":{"id":2,"name":"Europäischer Gerichtshof","slug":"eugh","city":null,"state":19,"jurisdiction":null,"level_of_appeal":null},"file_number":"C-405/26","date":"2026-05-13","created_date":"2026-05-15T04:15:15Z","updated_date":"2026-05-15T07:03:36Z","type":"Urteil","ecli":"ECLI:EU:C:2026:405"},{"id":521083,"slug":"eugh-2026-05-13-c-39826","court":{"id":2,"name":"Europäischer Gerichtshof","slug":"eugh","city":null,"state":19,"jurisdiction":null,"level_of_appeal":null},"file_number":"C-398/26","date":"2026-05-13","created_date":"2026-05-15T04:15:15Z","updated_date":"2026-05-15T07:03:36Z","type":"Urteil","ecli":"ECLI:EU:C:2026:398"},{"id":521084,"slug":"eugh-2026-05-13-c-40426","court":{"id":2,"name":"Europäischer Gerichtshof","slug":"eugh","city":null,"state":19,"jurisdiction":null,"level_of_appeal":null},"file_number":"C-404/26","date":"2026-05-13","created_date":"2026-05-15T04:15:15Z","updated_date":"2026-05-15T07:03:36Z","type":"Urteil","ecli":"ECLI:EU:C:2026:404"},{"id":521085,"slug":"eugh-2026-05-13-c-39626","court":{"id":2,"name":"Europäischer Gerichtshof","slug":"eugh","city":null,"state":19,"jurisdiction":null,"level_of_appeal":null},"file_number":"C-396/26","date":"2026-05-13","created_date":"2026-05-15T04:15:15Z","updated_date":"2026-05-15T07:03:35Z","type":"Urteil","ecli":"ECLI:EU:C:2026:396"},{"id":521086,"slug":"eugh-2026-05-13-c-39726","court":{"id":2,"name":"Europäischer Gerichtshof","slug":"eugh","city":null,"state":19,"jurisdiction":null,"level_of_appeal":null},"file_number":"C-397/26","date":"2026-05-13","created_date":"2026-05-15T04:15:15Z","updated_date":"2026-05-15T07:03:35Z","type":"Urteil","ecli":"ECLI:EU:C:2026:397"},{"id":521087,"slug":"eugh-2026-05-13-c-40026","court":{"id":2,"name":"Europäischer Gerichtshof","slug":"eugh","city":null,"state":19,"jurisdiction":null,"level_of_appeal":null},"file_number":"C-400/26","date":"2026-05-13","created_date":"2026-05-15T04:15:16Z","updated_date":"2026-05-15T07:03:35Z","type":"Schlussantrag des Generalanwalts","ecli":"ECLI:EU:C:2026:400"}]}